{
  "$schema": "http://json-schema.org/draft-04/schema#",
  "type": "object",
  "required": [
    "DomainName"
  ],
  "properties": {
    "DomainName": {
      "type": "string",
      "pattern": "^[a-z][a-z0-9\\-]+$"
    },
    "AccessPolicies": {
      "type": "string",
      "pattern": ".+"
    },
    "AdvancedOptions": {
      "type": "object",
      "patternProperties": {
        ".+": {
          "type": "string",
          "pattern": ".+"
        }
      },
      "additionalProperties": false
    },
    "EBSOptions": {
      "type": "object",
      "properties": {
        "EBSEnabled": {
          "type": "string",
          "enum": [
            "true",
            "false"
          ]
        },
        "Iops": {
          "type": "string",
          "pattern": "^\\d+$"
        },
        "VolumeSize": {
          "type": "string",
          "pattern": "^\\d+$"
        },
        "VolumeType": {
          "type": "string",
          "enum": [
            "standard",
            "gp2",
            "io1"
          ]
        }
      },
      "additionalProperties": false
    },
    "ElasticsearchClusterConfig": {
      "type": "object",
      "properties": {
        "DedicatedMasterCount": {
          "type": "string",
          "pattern": "^\\d$"
        },
        "DedicatedMasterEnabled": {
          "type": "string",
          "enum": [
            "true",
            "false"
          ]
        },
        "DedicatedMasterType": {
          "$ref": "#/definitions/ElasticseachNodeType"
        },
        "InstanceCount": {
          "type": "string",
          "pattern": "^\\d$"
        },
        "InstanceType": {
          "$ref": "#/definitions/ElasticseachNodeType"
        },
        "ZoneAwarenessEnabled": {
          "type": "string",
          "enum": [
            "true",
            "false"
          ]
        }
      },
      "additionalProperties": false
    },
    "ElasticsearchVersion": {
      "type": "string",
      "enum": [
        "6.3",
        "6.2",
        "6.0",
        "5.6",
        "5.5",
        "5.3",
        "5.1",
        "2.3",
        "1.5"
      ]
    },
    "SnapshotOptions": {
      "type": "object",
      "properties": {
        "AutomatedSnapshotStartHour": {
          "type": "string",
          "pattern": "^\\d$"
        }
      },
      "additionalProperties": false
    }
  },
  "additionalProperties": false,
  "definitions": {
    "ElasticseachNodeType": {
      "type": "string",
      "enum": [
        "m4.large.elasticsearch",
        "m4.xlarge.elasticsearch",
        "m4.2xlarge.elasticsearch",
        "m4.4xlarge.elasticsearch",
        "m4.10xlarge.elasticsearch",
        "c4.large.elasticsearch",
        "c4.xlarge.elasticsearch",
        "c4.2xlarge.elasticsearch",
        "c4.4xlarge.elasticsearch",
        "c4.8xlarge.elasticsearch",
        "r4.large.elasticsearch",
        "r4.xlarge.elasticsearch",
        "r4.2xlarge.elasticsearch",
        "r4.4xlarge.elasticsearch",
        "r4.8xlarge.elasticsearch",
        "r4.16xlarge.elasticsearch",
        "i3.large.elasticsearch",
        "i3.xlarge.elasticsearch",
        "i3.2xlarge.elasticsearch",
        "i3.4xlarge.elasticsearch",
        "i3.8xlarge.elasticsearch",
        "i3.16xlarge.elasticsearch",
        "m3.medium.elasticsearch",
        "m3.large.elasticsearch",
        "m3.xlarge.elasticsearch",
        "m3.2xlarge.elasticsearch",
        "t2.micro.elasticsearch",
        "t2.small.elasticsearch",
        "t2.medium.elasticsearch",
        "r3.large.elasticsearch",
        "r3.xlarge.elasticsearch",
        "r3.2xlarge.elasticsearch",
        "r3.4xlarge.elasticsearch",
        "r3.8xlarge.elasticsearch",
        "i2.xlarge.elasticsearch",
        "i2.2xlarge.elasticsearch"
      ]
    }
  }
}
